array([[[[227, 220, 214],
         [227, 221, 215],
         [227, 222, 215],
         ..., 
         [232, 230, 224],
         [231, 229, 222],
         [230, 229, 221]],

        [[227, 221, 214],
         [227, 221, 215],
         [228, 221, 215],
         ..., 
         [232, 230, 224],
         [231, 229, 222],
         [231, 229, 221]],

        [[227, 221, 214],
         [227, 221, 214],
         [227, 221, 215],
         ..., 
         [232, 230, 224],
         [231, 229, 223],
         [230, 229, 221]],

        ..., 
        [[119,  81,  51],
         [124,  85,  55],
         [127,  87,  58],
         ..., 
         [210, 211, 211],
         [211, 212, 210],
         [210, 211, 210]],

        [[119,  79,  51],
         [124,  84,  55],
         [126,  85,  56],
         ..., 
         [210, 211, 210],
         [210, 211, 210],
         [209, 210, 209]],

        [[119,  81,  51],
         [123,  83,  55],
         [122,  82,  54],
         ..., 
         [209, 210, 210],
         [209, 210, 209],
         [208, 209, 209]]],


       [[[238, 232, 223],
         [238, 232, 223],
         [238, 232, 223],
         ..., 
         [222, 216, 209],
         [221, 216, 207],
         [221, 216, 206]],

        [[237, 232, 223],
         [238, 232, 223],
         [238, 232, 223],
         ..., 
         [222, 216, 209],
         [222, 216, 208],
         [223, 217, 207]],

        [[236, 232, 222],
         [237, 232, 223],
         [238, 232, 223],
         ..., 
         [222, 216, 209],
         [222, 216, 208],
         [221, 216, 207]],

        ..., 
        [[218, 212, 204],
         [217, 212, 204],
         [217, 211, 205],
         ..., 
         [214, 203, 194],
         [214, 203, 195],
         [214, 204, 194]],

        [[217, 211, 203],
         [217, 211, 203],
         [216, 210, 203],
         ..., 
         [214, 203, 194],
         [215, 203, 194],
         [215, 204, 193]],

        [[216, 210, 202],
         [216, 210, 203],
         [215, 209, 203],
         ..., 
         [214, 203, 194],
         [215, 203, 194],
         [215, 204, 192]]],


       [[[228, 220, 208],
         [228, 220, 208],
         [227, 219, 208],
         ..., 
         [231, 228, 221],
         [232, 228, 221],
         [231, 227, 220]],

        [[228, 219, 208],
         [228, 219, 208],
         [227, 219, 207],
         ..., 
         [231, 227, 221],
         [231, 227, 221],
         [231, 227, 220]],

        [[227, 219, 208],
         [227, 219, 208],
         [227, 219, 208],
         ..., 
         [231, 227, 222],
         [231, 227, 222],
         [231, 227, 220]],

        ..., 
        [[214, 200, 185],
         [214, 199, 183],
         [184, 167, 150],
         ..., 
         [209, 205, 201],
         [212, 207, 204],
         [212, 208, 204]],

        [[213, 198, 183],
         [201, 185, 169],
         [139, 115,  95],
         ..., 
         [209, 204, 201],
         [210, 206, 202],
         [212, 207, 203]],

        [[209, 194, 178],
         [162, 142, 124],
         [122,  88,  64],
         ..., 
         [208, 204, 200],
         [210, 206, 201],
         [211, 207, 202]]],


       ..., 
       [[[235, 226, 216],
         [235, 227, 216],
         [234, 227, 216],
         ..., 
         [228, 222, 213],
         [228, 222, 213],
         [228, 223, 213]],

        [[235, 226, 216],
         [234, 227, 216],
         [234, 227, 216],
         ..., 
         [228, 222, 214],
         [228, 222, 214],
         [228, 222, 214]],

        [[234, 226, 217],
         [234, 226, 216],
         [234, 226, 216],
         ..., 
         [228, 222, 214],
         [228, 223, 214],
         [228, 223, 214]],

        ..., 
        [[209, 197, 185],
         [209, 198, 185],
         [210, 199, 186],
         ..., 
         [201, 194, 187],
         [202, 195, 187],
         [202, 195, 187]],

        [[208, 197, 183],
         [209, 198, 184],
         [210, 198, 185],
         ..., 
         [200, 192, 184],
         [201, 193, 185],
         [201, 193, 184]],

        [[207, 196, 182],
         [209, 197, 184],
         [210, 198, 185],
         ..., 
         [199, 191, 182],
         [200, 191, 183],
         [200, 192, 182]]],


       [[[233, 226, 217],
         [233, 227, 218],
         [232, 228, 218],
         ..., 
         [225, 221, 211],
         [225, 220, 210],
         [224, 219, 209]],

        [[232, 226, 217],
         [232, 227, 218],
         [233, 228, 219],
         ..., 
         [224, 220, 210],
         [224, 220, 210],
         [223, 219, 208]],

        [[232, 227, 217],
         [231, 227, 217],
         [231, 227, 218],
         ..., 
         [224, 221, 211],
         [224, 220, 210],
         [222, 219, 208]],

        ..., 
        [[192, 184, 173],
         [193, 185, 173],
         [192, 185, 173],
         ..., 
         [208, 205, 203],
         [208, 204, 202],
         [207, 204, 201]],

        [[191, 184, 173],
         [191, 184, 173],
         [191, 184, 173],
         ..., 
         [207, 204, 202],
         [206, 204, 201],
         [206, 203, 200]],

        [[190, 183, 171],
         [191, 183, 172],
         [190, 183, 172],
         ..., 
         [206, 202, 200],
         [205, 202, 199],
         [204, 201, 198]]],


       [[[230, 220, 209],
         [230, 221, 210],
         [230, 221, 210],
         ..., 
         [232, 225, 215],
         [232, 225, 215],
         [231, 224, 214]],

        [[230, 221, 209],
         [230, 221, 210],
         [230, 221, 210],
         ..., 
         [231, 224, 214],
         [231, 225, 215],
         [231, 224, 214]],

        [[229, 220, 209],
         [229, 221, 210],
         [229, 221, 210],
         ..., 
         [231, 225, 215],
         [230, 225, 215],
         [229, 224, 213]],

        ..., 
        [[216, 207, 200],
         [217, 207, 200],
         [218, 208, 200],
         ..., 
         [202, 198, 198],
         [202, 199, 198],
         [203, 200, 197]],

        [[215, 206, 199],
         [217, 207, 200],
         [218, 208, 200],
         ..., 
         [201, 199, 198],
         [202, 199, 197],
         [202, 199, 197]],

        [[214, 205, 198],
         [216, 206, 199],
         [217, 207, 199],
         ..., 
         [201, 198, 197],
         [202, 199, 198],
         [202, 199, 197]]]], dtype=uint8)